INDEX VERSION 1.131+C:\examen\back\.metadata\.plugins\org.eclipse.jdt.core
3312262880.index
396602407.index
2105467634.index
3452415921.index
4248185869.index
4104362647.index
2218523036.index
1099056771.index
1853506845.index
3995147104.index
1738386113.index
2934857914.index
1794120031.index
3246568529.index
1471554183.index
610403585.index
2341825714.index
1060349579.index
170160641.index
3566169325.index
3387831605.index
3464220257.index
1134547732.index
147475638.index
2290425942.index
3037588465.index
3672624482.index
3884184980.index
1423476963.index
770818070.index
868504487.index
3721027170.index
3367410569.index
3413725848.index
1158767587.index
1364267496.index
99808268.index
3829729909.index
177075246.index
1865797976.index
729488545.index
3971721366.index
1509185022.index
3425228988.index
4149871929.index
2749803759.index
3751232636.index
4138816188.index
2541228676.index
3521152356.index
3411336579.index
3305951791.index
106994093.index
3982915313.index
3327182339.index
1648709064.index
3143196188.index
128854010.index
425411838.index
1929238593.index
3112851501.index
576170160.index
4226290088.index
935633324.index
4239568367.index
4105604215.index
3742053552.index
2455924999.index
940930957.index
1193144572.index
1409791990.index
2510301547.index
1107717947.index
4034641503.index
2569262919.index
2200477047.index
2957854150.index
4217846543.index
172056241.index
1775490469.index
386556196.index
2376363422.index
3438419620.index
3882311450.index
423567267.index
1370395649.index
746843066.index
1573891447.index
